%YAML 1.1
%TAG !u! tag:unity3d.com,2011:
--- !u!114 &11400000
MonoBehaviour:
  m_ObjectHideFlags: 0
  m_CorrespondingSourceObject: {fileID: 0}
  m_PrefabInstance: {fileID: 0}
  m_PrefabAsset: {fileID: 0}
  m_GameObject: {fileID: 0}
  m_Enabled: 1
  m_EditorHideFlags: 0
  m_Script: {fileID: 11500000, guid: 22eb998b2ef3f4a808c009751bd63d33, type: 3}
  m_Name: AATKitSettings
  m_EditorClassIdentifier: 
  version: 2.21.1
  networks:
  - networkName: AdColony
    androidNetwork: 1
    iOSNetwork: 1
    androidFiles:
    - AdColony.aar
    iOSDirectories: []
    iOSPods:
    - AATKit/AdColony
    androidEnabled: 1
    iOSEnabled: 0
  - networkName: AdMob
    androidNetwork: 1
    iOSNetwork: 1
    androidFiles: []
    iOSDirectories: []
    iOSPods:
    - AATKit/Admob
    androidEnabled: 1
    iOSEnabled: 1
  - networkName: AdX
    androidNetwork: 1
    iOSNetwork: 1
    androidFiles: []
    iOSDirectories: []
    iOSPods:
    - AATKit/AdX
    androidEnabled: 1
    iOSEnabled: 1
  - networkName: AppLovin
    androidNetwork: 1
    iOSNetwork: 1
    androidFiles:
    - AppLovin.aar
    iOSDirectories: []
    iOSPods:
    - AATKit/AppLovinSDK
    androidEnabled: 1
    iOSEnabled: 1
  - networkName: AppNexus
    androidNetwork: 1
    iOSNetwork: 1
    androidFiles:
    - appnexus-sdk.aar
    iOSDirectories: []
    iOSPods:
    - AATKit/AppNexus
    androidEnabled: 1
    iOSEnabled: 1
  - networkName: BlueStack
    androidNetwork: 1
    iOSNetwork: 1
    androidFiles:
    - bluestack-core-sdk.aar
    iOSDirectories: []
    iOSPods:
    - AATKit/BlueStack
    androidEnabled: 1
    iOSEnabled: 1
  - networkName: Criteo
    androidNetwork: 1
    iOSNetwork: 1
    androidFiles:
    - CriteoSDK.aar
    iOSDirectories: []
    iOSPods:
    - AATKit/CriteoSDK
    androidEnabled: 1
    iOSEnabled: 1
  - networkName: DFP
    androidNetwork: 1
    iOSNetwork: 1
    androidFiles: []
    iOSDirectories: []
    iOSPods:
    - AATKit/DFP
    androidEnabled: 1
    iOSEnabled: 1
  - networkName: Facebook
    androidNetwork: 0
    iOSNetwork: 1
    androidFiles: []
    iOSDirectories: []
    iOSPods:
    - AATKit/Facebook
    androidEnabled: 1
    iOSEnabled: 1
  - networkName: InLoco
    androidNetwork: 1
    iOSNetwork: 0
    androidFiles:
    - inloco-android-sdk-ads-4.6.1.aar
    - inloco-android-sdk-core-4.6.1.aar
    - inloco-android-sdk-location-4.6.1.aar
    iOSDirectories: []
    iOSPods: []
    androidEnabled: 1
    iOSEnabled: 1
  - networkName: Inmobi
    androidNetwork: 1
    iOSNetwork: 1
    androidFiles:
    - InMobi.aar
    iOSDirectories: []
    iOSPods:
    - AATKit/Inmobi
    androidEnabled: 1
    iOSEnabled: 1
  - networkName: MoPub
    androidNetwork: 1
    iOSNetwork: 1
    androidFiles:
    - mopub-sdk-banner.aar
    - mopub-sdk-base.aar
    - mopub-sdk-native-static.aar
    - mopub-sdk-fullscreen.aar
    - mopub-omsdk-android.aar
    - mopub-volley.jar
    - libAvid-mopub.jar
    - mopub-sdk-networking.aar
    - mopub-sdk-util.aar
    iOSDirectories: []
    iOSPods:
    - AATKit/Mopub
    androidEnabled: 1
    iOSEnabled: 1
  - networkName: Ogury
    androidNetwork: 1
    iOSNetwork: 1
    androidFiles:
    - Ogury.aar
    iOSDirectories: []
    iOSPods:
    - AATKit/OguryAds
    androidEnabled: 1
    iOSEnabled: 1
  - networkName: PubNative
    androidNetwork: 1
    iOSNetwork: 1
    androidFiles: []
    iOSDirectories: []
    iOSPods:
    - AATKit/PubNative
    androidEnabled: 1
    iOSEnabled: 1
  - networkName: Smaato
    androidNetwork: 1
    iOSNetwork: 1
    androidFiles: []
    iOSDirectories: []
    iOSPods:
    - AATKit/Smaato
    androidEnabled: 1
    iOSEnabled: 1
  - networkName: SmartAd
    androidNetwork: 1
    iOSNetwork: 1
    androidFiles:
    - SmartAdServer.aar
    iOSDirectories: []
    iOSPods:
    - AATKit/SmartAdServer
    androidEnabled: 1
    iOSEnabled: 1
  - networkName: Unity Ads
    androidNetwork: 1
    iOSNetwork: 1
    androidFiles:
    - UnityAds.aar
    iOSDirectories: []
    iOSPods:
    - AATKit/Unity
    androidEnabled: 1
    iOSEnabled: 1
  - networkName: Yandex
    androidNetwork: 1
    iOSNetwork: 1
    androidFiles:
    - yandex-mobileads.aar
    - yandex-mobmetricalib.aar
    iOSDirectories: []
    iOSPods:
    - AATKit/Yandex
    androidEnabled: 1
    iOSEnabled: 1
  gadApplicationIdentifier: 
